# Blender MTL File: 'None'
# Material Count: 1

newmtl defaultMat
Ns 98.039216
Ka 0.000000 0.000000 0.000000
Kd 0.800000 0.800000 0.800000
Ks 1.000000 1.000000 1.000000
Ni 1.000000
d 1.000000
illum 2
